[gd_scene load_steps=2 format=2]

[sub_resource type="RectangleShape2D" id=1]
extents = Vector2( 512, 10 )

[node name="HorizontalWall" type="StaticBody2D"]

[node name="CollisionShape2D" type="CollisionShape2D" parent="."]
position = Vector2( 512, -10 )
shape = SubResource( 1 )
