[gd_scene load_steps=2 format=2]

[sub_resource type="RectangleShape2D" id=1]
extents = Vector2( 10, 300 )

[node name="VerticalWall" type="StaticBody2D"]

[node name="CollisionShape2D" type="CollisionShape2D" parent="."]
position = Vector2( -10, 300 )
shape = SubResource( 1 )
